{
    "photos": {
        "page": 1,
         "pages": 2,
         "perpage": 63,
         "total": "92",
         "photo": [
            {
                "id": "6024779061",
                 "owner": "14224905@N08",
                 "secret": "de8bc8c77f",
                 "server": "6128",
                 "farm": 7,
                 "title": "Jikishinkageryu Naginatajutsu with Fukuoka sensei in Himeji Budokan 2011-05-26",
                 "ispublic": 1,
                 "isfriend": 0,
                 "isfamily": 0
            },
             {
                "id": "6025334076",
                 "owner": "14224905@N08",
                 "secret": "bfeb0aa7a6",
                 "server": "6089",
                 "farm": 7,
                 "title": "Naginata in Himeji Sports Center 2011-06-09",
                 "ispublic": 1,
                 "isfriend": 0,
                 "isfamily": 0
            },
             {
                "id": "5988483341",
                 "owner": "14224905@N08",
                 "secret": "e0f32e72b2",
                 "server": "6132",
                 "farm": 7,
                 "title": "Atarashii Naginatado, Kobe 2011-06-18",
                 "ispublic": 1,
                 "isfriend": 0,
                 "isfamily": 0
            },
             {
                "id": "5988482559",
                 "owner": "14224905@N08",
                 "secret": "c7f38f2417",
                 "server": "6030",
                 "farm": 7,
                 "title": "Jikishinkageryu Naginatajutsu, Himeji Budokan 2011-06-16",
                 "ispublic": 1,
                 "isfriend": 0,
                 "isfamily": 0
            },
             {
                "id": "5763043905",
                 "owner": "14224905@N08",
                 "secret": "5a542834cf",
                 "server": "2514",
                 "farm": 3,
                 "title": "Himeji 2011-05-26 Jikishinkageryu Naginatajutsu",
                 "ispublic": 1,
                 "isfriend": 0,
                 "isfamily": 0
            },
             {
                "id": "5763043699",
                 "owner": "14224905@N08",
                 "secret": "fcda29747e",
                 "server": "5185",
                 "farm": 6,
                 "title": "Kyoto 2011-05-04 Shimogamo Jinja, Jikishinkageryu Naginatajutsu",
                 "ispublic": 1,
                 "isfriend": 0,
                 "isfamily": 0
            },
             {
                "id": "4595256326",
                 "owner": "14224905@N08",
                 "secret": "37148e5411",
                 "server": "3283",
                 "farm": 4,
                 "title": "Himeji, Japan 2010-04-21",
                 "ispublic": 1,
                 "isfriend": 0,
                 "isfamily": 0
            },
             {
                "id": "4593691496",
                 "owner": "14224905@N08",
                 "secret": "b30c388351",
                 "server": "1116",
                 "farm": 2,
                 "title": "Kobe, Japan 2010-04-17",
                 "ispublic": 1,
                 "isfriend": 0,
                 "isfamily": 0
            },
             {
                "id": "4339160168",
                 "owner": "14224905@N08",
                 "secret": "08dc1a9d81",
                 "server": "2692",
                 "farm": 3,
                 "title": "Naginata Helsinki 2010-02-07 06",
                 "ispublic": 1,
                 "isfriend": 0,
                 "isfamily": 0
            },
             {
                "id": "4338427189",
                 "owner": "14224905@N08",
                 "secret": "f89d2db2b5",
                 "server": "4008",
                 "farm": 5,
                 "title": "Naginata Helsinki 2010-02-07 11",
                 "ispublic": 1,
                 "isfriend": 0,
                 "isfamily": 0
            },
             {
                "id": "4339164262",
                 "owner": "14224905@N08",
                 "secret": "45cd7b2b27",
                 "server": "4052",
                 "farm": 5,
                 "title": "Naginata Helsinki 2010-02-07 08",
                 "ispublic": 1,
                 "isfriend": 0,
                 "isfamily": 0
            },
             {
                "id": "6025333946",
                 "owner": "14224905@N08",
                 "secret": "d18d4484bc",
                 "server": "6071",
                 "farm": 7,
                 "title": "Jikishinkageryu Naginatajutsu in Hyogo Kenritsu Budokan, Himeji 2011-05-29",
                 "ispublic": 1,
                 "isfriend": 0,
                 "isfamily": 0
            },
             {
                "id": "6004950535",
                 "owner": "14224905@N08",
                 "secret": "3e14c0577b",
                 "server": "6021",
                 "farm": 7,
                 "title": "5th Naginata World Championship T-shirts arrived in Himeji 2011-06-23",
                 "ispublic": 1,
                 "isfriend": 0,
                 "isfamily": 0
            },
             {
                "id": "5973529225",
                 "owner": "14224905@N08",
                 "secret": "c13bf69915",
                 "server": "6149",
                 "farm": 7,
                 "title": "Naginata in Himeji Sports Center 2011-06-04",
                 "ispublic": 1,
                 "isfriend": 0,
                 "isfamily": 0
            },
             {
                "id": "5896930485",
                 "owner": "14224905@N08",
                 "secret": "bc7a7e2b6c",
                 "server": "5191",
                 "farm": 6,
                 "title": "Naginata in Himeji 2011-06-11",
                 "ispublic": 1,
                 "isfriend": 0,
                 "isfamily": 0
            },
             {
                "id": "5892262839",
                 "owner": "14224905@N08",
                 "secret": "89ba17ac87",
                 "server": "5103",
                 "farm": 6,
                 "title": "Jikishinkageryu Naginata seminar in Himeji 2011-06-22",
                 "ispublic": 1,
                 "isfriend": 0,
                 "isfamily": 0
            },
             {
                "id": "5763589730",
                 "owner": "14224905@N08",
                 "secret": "ae7116f625",
                 "server": "2291",
                 "farm": 3,
                 "title": "Kyoto 2011-05-02 107th Embu Taikai, Jikishinkageryu Naginatajutsu",
                 "ispublic": 1,
                 "isfriend": 0,
                 "isfamily": 0
            },
             {
                "id": "4632519379",
                 "owner": "14224905@N08",
                 "secret": "88b217df5e",
                 "server": "3371",
                 "farm": 4,
                 "title": "Himeji, Japan 2010-04-15",
                 "ispublic": 1,
                 "isfriend": 0,
                 "isfamily": 0
            },
             {
                "id": "4632520539",
                 "owner": "14224905@N08",
                 "secret": "aaba8e61fa",
                 "server": "4070",
                 "farm": 5,
                 "title": "Himeji, Japan 2010-04-15",
                 "ispublic": 1,
                 "isfriend": 0,
                 "isfamily": 0
            },
             {
                "id": "4594653841",
                 "owner": "14224905@N08",
                 "secret": "f74764955b",
                 "server": "1095",
                 "farm": 2,
                 "title": "Himeji, Japan 2010-04-13",
                 "ispublic": 1,
                 "isfriend": 0,
                 "isfamily": 0
            },
             {
                "id": "4339173618",
                 "owner": "14224905@N08",
                 "secret": "30a64c0f5c",
                 "server": "4036",
                 "farm": 5,
                 "title": "Naginata Helsinki 2010-02-07 13",
                 "ispublic": 1,
                 "isfriend": 0,
                 "isfamily": 0
            },
             {
                "id": "4338424327",
                 "owner": "14224905@N08",
                 "secret": "287da4b287",
                 "server": "2729",
                 "farm": 3,
                 "title": "Naginata Helsinki 2010-02-07 09",
                 "ispublic": 1,
                 "isfriend": 0,
                 "isfamily": 0
            },
             {
                "id": "4339171586",
                 "owner": "14224905@N08",
                 "secret": "76e1df4c9d",
                 "server": "4066",
                 "farm": 5,
                 "title": "Naginata Helsinki 2010-02-07 12",
                 "ispublic": 1,
                 "isfriend": 0,
                 "isfamily": 0
            },
             {
                "id": "4339175212",
                 "owner": "14224905@N08",
                 "secret": "89128e1f4d",
                 "server": "2778",
                 "farm": 3,
                 "title": "Naginata Helsinki 2010-02-07 14",
                 "ispublic": 1,
                 "isfriend": 0,
                 "isfamily": 0
            },
             {
                "id": "4339162394",
                 "owner": "14224905@N08",
                 "secret": "b87994a1bb",
                 "server": "4011",
                 "farm": 5,
                 "title": "Naginata Helsinki 2010-02-07 07",
                 "ispublic": 1,
                 "isfriend": 0,
                 "isfamily": 0
            },
             {
                "id": "4339167466",
                 "owner": "14224905@N08",
                 "secret": "e3a8a150fe",
                 "server": "4065",
                 "farm": 5,
                 "title": "Naginata Helsinki 2010-02-07 10",
                 "ispublic": 1,
                 "isfriend": 0,
                 "isfamily": 0
            },
             {
                "id": "4338414899",
                 "owner": "14224905@N08",
                 "secret": "68e32c86c9",
                 "server": "4023",
                 "farm": 5,
                 "title": "Naginata Helsinki 2010-02-07 04",
                 "ispublic": 1,
                 "isfriend": 0,
                 "isfamily": 0
            },
             {
                "id": "4339156198",
                 "owner": "14224905@N08",
                 "secret": "714481beb3",
                 "server": "4011",
                 "farm": 5,
                 "title": "Naginata Helsinki 2010-02-07 03",
                 "ispublic": 1,
                 "isfriend": 0,
                 "isfamily": 0
            },
             {
                "id": "4338410441",
                 "owner": "14224905@N08",
                 "secret": "f403f922b9",
                 "server": "4032",
                 "farm": 5,
                 "title": "Naginata Helsinki 2010-02-07 01",
                 "ispublic": 1,
                 "isfriend": 0,
                 "isfamily": 0
            },
             {
                "id": "4339153260",
                 "owner": "14224905@N08",
                 "secret": "d3b377502e",
                 "server": "2678",
                 "farm": 3,
                 "title": "Naginata Helsinki 2010-02-07 02",
                 "ispublic": 1,
                 "isfriend": 0,
                 "isfamily": 0
            },
             {
                "id": "4339157766",
                 "owner": "14224905@N08",
                 "secret": "f36d0c1be9",
                 "server": "4022",
                 "farm": 5,
                 "title": "Naginata Helsinki 2010-02-07 05",
                 "ispublic": 1,
                 "isfriend": 0,
                 "isfamily": 0
            },
             {
                "id": "4025534344",
                 "owner": "14224905@N08",
                 "secret": "47ec05a0e5",
                 "server": "2679",
                 "farm": 3,
                 "title": "Atarashii Naginatado at the Helsinki Kendo Club",
                 "ispublic": 1,
                 "isfriend": 0,
                 "isfamily": 0
            },
             {
                "id": "3904464471",
                 "owner": "14224905@N08",
                 "secret": "8ab0dc27cf",
                 "server": "3442",
                 "farm": 4,
                 "title": "\u8599\u5200 Prague 2009-09 96",
                 "ispublic": 1,
                 "isfriend": 0,
                 "isfamily": 0
            },
             {
                "id": "3905247032",
                 "owner": "14224905@N08",
                 "secret": "ca49878fe6",
                 "server": "2477",
                 "farm": 3,
                 "title": "\u8599\u5200 Prague 2009-09 95",
                 "ispublic": 1,
                 "isfriend": 0,
                 "isfamily": 0
            },
             {
                "id": "3905246898",
                 "owner": "14224905@N08",
                 "secret": "e6ee6cb091",
                 "server": "2592",
                 "farm": 3,
                 "title": "\u8599\u5200 Prague 2009-09 94",
                 "ispublic": 1,
                 "isfriend": 0,
                 "isfamily": 0
            },
             {
                "id": "3904463901",
                 "owner": "14224905@N08",
                 "secret": "5f698c69ef",
                 "server": "2509",
                 "farm": 3,
                 "title": "\u8599\u5200 Prague 2009-09 93",
                 "ispublic": 1,
                 "isfriend": 0,
                 "isfamily": 0
            },
             {
                "id": "3904463665",
                 "owner": "14224905@N08",
                 "secret": "2a488587b6",
                 "server": "2522",
                 "farm": 3,
                 "title": "\u8599\u5200 Prague 2009-09 92",
                 "ispublic": 1,
                 "isfriend": 0,
                 "isfamily": 0
            },
             {
                "id": "3905239658",
                 "owner": "14224905@N08",
                 "secret": "e225bef225",
                 "server": "2439",
                 "farm": 3,
                 "title": "\u8599\u5200 Prague 2009-09 68",
                 "ispublic": 1,
                 "isfriend": 0,
                 "isfamily": 0
            },
             {
                "id": "3904460217",
                 "owner": "14224905@N08",
                 "secret": "ef8948a930",
                 "server": "2436",
                 "farm": 3,
                 "title": "\u8599\u5200 Prague 2009-09 80",
                 "ispublic": 1,
                 "isfriend": 0,
                 "isfamily": 0
            },
             {
                "id": "3905238260",
                 "owner": "14224905@N08",
                 "secret": "1ae1b36d45",
                 "server": "2579",
                 "farm": 3,
                 "title": "\u8599\u5200 Prague 2009-09 62",
                 "ispublic": 1,
                 "isfriend": 0,
                 "isfamily": 0
            },
             {
                "id": "3904455771",
                 "owner": "14224905@N08",
                 "secret": "0b51090066",
                 "server": "2460",
                 "farm": 3,
                 "title": "\u8599\u5200 Prague 2009-09 64",
                 "ispublic": 1,
                 "isfriend": 0,
                 "isfamily": 0
            },
             {
                "id": "3905242344",
                 "owner": "14224905@N08",
                 "secret": "cec956868e",
                 "server": "2509",
                 "farm": 3,
                 "title": "\u8599\u5200 Prague 2009-09 77",
                 "ispublic": 1,
                 "isfriend": 0,
                 "isfamily": 0
            },
             {
                "id": "3904457231",
                 "owner": "14224905@N08",
                 "secret": "653e4d93a7",
                 "server": "2510",
                 "farm": 3,
                 "title": "\u8599\u5200 Prague 2009-09 70",
                 "ispublic": 1,
                 "isfriend": 0,
                 "isfamily": 0
            },
             {
                "id": "3904454837",
                 "owner": "14224905@N08",
                 "secret": "b1b9eb4d0b",
                 "server": "3582",
                 "farm": 4,
                 "title": "\u8599\u5200 Prague 2009-09 60",
                 "ispublic": 1,
                 "isfriend": 0,
                 "isfamily": 0
            },
             {
                "id": "3904455073",
                 "owner": "14224905@N08",
                 "secret": "4b1e453578",
                 "server": "2559",
                 "farm": 3,
                 "title": "\u8599\u5200 Prague 2009-09 61",
                 "ispublic": 1,
                 "isfriend": 0,
                 "isfamily": 0
            },
             {
                "id": "3904458971",
                 "owner": "14224905@N08",
                 "secret": "261ab94da0",
                 "server": "2475",
                 "farm": 3,
                 "title": "\u8599\u5200 Prague 2009-09 76",
                 "ispublic": 1,
                 "isfriend": 0,
                 "isfamily": 0
            },
             {
                "id": "3905238942",
                 "owner": "14224905@N08",
                 "secret": "af05dcd22e",
                 "server": "2631",
                 "farm": 3,
                 "title": "\u8599\u5200 Prague 2009-09 65",
                 "ispublic": 1,
                 "isfriend": 0,
                 "isfamily": 0
            },
             {
                "id": "3905222248",
                 "owner": "14224905@N08",
                 "secret": "5678822990",
                 "server": "3471",
                 "farm": 4,
                 "title": "\u8599\u5200 Prague 2009-09 49",
                 "ispublic": 1,
                 "isfriend": 0,
                 "isfamily": 0
            },
             {
                "id": "3904460505",
                 "owner": "14224905@N08",
                 "secret": "c63c53f361",
                 "server": "2592",
                 "farm": 3,
                 "title": "\u8599\u5200 Prague 2009-09 81",
                 "ispublic": 1,
                 "isfriend": 0,
                 "isfamily": 0
            },
             {
                "id": "3904456143",
                 "owner": "14224905@N08",
                 "secret": "b4a8122f01",
                 "server": "2450",
                 "farm": 3,
                 "title": "\u8599\u5200 Prague 2009-09 66",
                 "ispublic": 1,
                 "isfriend": 0,
                 "isfamily": 0
            },
             {
                "id": "3905240040",
                 "owner": "14224905@N08",
                 "secret": "b2902ef162",
                 "server": "2571",
                 "farm": 3,
                 "title": "\u8599\u5200 Prague 2009-09 69",
                 "ispublic": 1,
                 "isfriend": 0,
                 "isfamily": 0
            },
             {
                "id": "3904458329",
                 "owner": "14224905@N08",
                 "secret": "7507f4563b",
                 "server": "3530",
                 "farm": 4,
                 "title": "\u8599\u5200 Prague 2009-09 74",
                 "ispublic": 1,
                 "isfriend": 0,
                 "isfamily": 0
            },
             {
                "id": "3905241086",
                 "owner": "14224905@N08",
                 "secret": "66bef6b42c",
                 "server": "3493",
                 "farm": 4,
                 "title": "\u8599\u5200 Prague 2009-09 73",
                 "ispublic": 1,
                 "isfriend": 0,
                 "isfamily": 0
            },
             {
                "id": "3904457621",
                 "owner": "14224905@N08",
                 "secret": "fc429a127c",
                 "server": "2504",
                 "farm": 3,
                 "title": "\u8599\u5200 Prague 2009-09 71",
                 "ispublic": 1,
                 "isfriend": 0,
                 "isfamily": 0
            },
             {
                "id": "3905239426",
                 "owner": "14224905@N08",
                 "secret": "71533ca1ee",
                 "server": "2582",
                 "farm": 3,
                 "title": "\u8599\u5200 Prague 2009-09 67",
                 "ispublic": 1,
                 "isfriend": 0,
                 "isfamily": 0
            },
             {
                "id": "3905238604",
                 "owner": "14224905@N08",
                 "secret": "522f53a99f",
                 "server": "2636",
                 "farm": 3,
                 "title": "\u8599\u5200 Prague 2009-09 63",
                 "ispublic": 1,
                 "isfriend": 0,
                 "isfamily": 0
            },
             {
                "id": "3905240870",
                 "owner": "14224905@N08",
                 "secret": "85f433ab7c",
                 "server": "3496",
                 "farm": 4,
                 "title": "\u8599\u5200 Prague 2009-09 72",
                 "ispublic": 1,
                 "isfriend": 0,
                 "isfamily": 0
            },
             {
                "id": "3904439093",
                 "owner": "14224905@N08",
                 "secret": "daa645e4f9",
                 "server": "3457",
                 "farm": 4,
                 "title": "\u8599\u5200 Prague 2009-09 50",
                 "ispublic": 1,
                 "isfriend": 0,
                 "isfamily": 0
            },
             {
                "id": "3904459971",
                 "owner": "14224905@N08",
                 "secret": "f88dd99132",
                 "server": "2488",
                 "farm": 3,
                 "title": "\u8599\u5200 Prague 2009-09 79",
                 "ispublic": 1,
                 "isfriend": 0,
                 "isfamily": 0
            },
             {
                "id": "3905241712",
                 "owner": "14224905@N08",
                 "secret": "7c6992e3a0",
                 "server": "2465",
                 "farm": 3,
                 "title": "\u8599\u5200 Prague 2009-09 75",
                 "ispublic": 1,
                 "isfriend": 0,
                 "isfamily": 0
            },
             {
                "id": "3904454653",
                 "owner": "14224905@N08",
                 "secret": "0b1dcf419b",
                 "server": "2479",
                 "farm": 3,
                 "title": "\u8599\u5200 Prague 2009-09 59",
                 "ispublic": 1,
                 "isfriend": 0,
                 "isfamily": 0
            },
             {
                "id": "3904459577",
                 "owner": "14224905@N08",
                 "secret": "dd69a08def",
                 "server": "3456",
                 "farm": 4,
                 "title": "\u8599\u5200 Prague 2009-09 78",
                 "ispublic": 1,
                 "isfriend": 0,
                 "isfamily": 0
            },
             {
                "id": "3904441455",
                 "owner": "14224905@N08",
                 "secret": "c1b3a2cd0c",
                 "server": "2525",
                 "farm": 3,
                 "title": "\u8599\u5200 Prague 2009-09 58",
                 "ispublic": 1,
                 "isfriend": 0,
                 "isfamily": 0
            }
        ]
    },
     "stat": "ok"
}