{
    "photos": {
        "page": 1,
         "pages": 2,
         "perpage": 63,
         "total": "121",
         "photo": [
            {
                "id": "7896503292",
                 "owner": "14224905@N08",
                 "secret": "ec80ff1b79",
                 "server": "8180",
                 "farm": 9,
                 "title": "Naginata INF Seminar 2012 Uppsala - 10",
                 "ispublic": 1,
                 "isfriend": 0,
                 "isfamily": 0
            },
             {
                "id": "7896512612",
                 "owner": "14224905@N08",
                 "secret": "8793b62e5c",
                 "server": "8461",
                 "farm": 9,
                 "title": "Naginata INF Seminar 2012 Uppsala - 13",
                 "ispublic": 1,
                 "isfriend": 0,
                 "isfamily": 0
            },
             {
                "id": "7896506982",
                 "owner": "14224905@N08",
                 "secret": "dca3d1c65d",
                 "server": "8435",
                 "farm": 9,
                 "title": "Naginata INF Seminar 2012 Uppsala - 11",
                 "ispublic": 1,
                 "isfriend": 0,
                 "isfamily": 0
            },
             {
                "id": "7896478092",
                 "owner": "14224905@N08",
                 "secret": "f6d6ca8ab8",
                 "server": "8313",
                 "farm": 9,
                 "title": "Naginata INF Seminar 2012 Uppsala - 03",
                 "ispublic": 1,
                 "isfriend": 0,
                 "isfamily": 0
            },
             {
                "id": "7896497718",
                 "owner": "14224905@N08",
                 "secret": "fe55710472",
                 "server": "8310",
                 "farm": 9,
                 "title": "Naginata INF Seminar 2012 Uppsala - 08",
                 "ispublic": 1,
                 "isfriend": 0,
                 "isfamily": 0
            },
             {
                "id": "7896510078",
                 "owner": "14224905@N08",
                 "secret": "3784100263",
                 "server": "8031",
                 "farm": 9,
                 "title": "Naginata INF Seminar 2012 Uppsala - 12",
                 "ispublic": 1,
                 "isfriend": 0,
                 "isfamily": 0
            },
             {
                "id": "7896500648",
                 "owner": "14224905@N08",
                 "secret": "f48c9c8317",
                 "server": "8446",
                 "farm": 9,
                 "title": "Naginata INF Seminar 2012 Uppsala - 09",
                 "ispublic": 1,
                 "isfriend": 0,
                 "isfamily": 0
            },
             {
                "id": "7896487956",
                 "owner": "14224905@N08",
                 "secret": "dce6c1843e",
                 "server": "8461",
                 "farm": 9,
                 "title": "Naginata INF Seminar 2012 Uppsala - 05",
                 "ispublic": 1,
                 "isfriend": 0,
                 "isfamily": 0
            },
             {
                "id": "7896514856",
                 "owner": "14224905@N08",
                 "secret": "41f04cb760",
                 "server": "8315",
                 "farm": 9,
                 "title": "Naginata INF Seminar 2012 Uppsala - 14",
                 "ispublic": 1,
                 "isfriend": 0,
                 "isfamily": 0
            },
             {
                "id": "7896472998",
                 "owner": "14224905@N08",
                 "secret": "40e781294b",
                 "server": "8308",
                 "farm": 9,
                 "title": "Naginata INF Seminar 2012 Uppsala - 02",
                 "ispublic": 1,
                 "isfriend": 0,
                 "isfamily": 0
            },
             {
                "id": "7896486144",
                 "owner": "14224905@N08",
                 "secret": "6dc0bc0a9f",
                 "server": "8170",
                 "farm": 9,
                 "title": "Naginata INF Seminar 2012 Uppsala - 04",
                 "ispublic": 1,
                 "isfriend": 0,
                 "isfamily": 0
            },
             {
                "id": "7896468302",
                 "owner": "14224905@N08",
                 "secret": "daa1e5cc82",
                 "server": "8306",
                 "farm": 9,
                 "title": "Naginata INF Seminar 2012 Uppsala - 01",
                 "ispublic": 1,
                 "isfriend": 0,
                 "isfamily": 0
            },
             {
                "id": "7896495090",
                 "owner": "14224905@N08",
                 "secret": "f071163601",
                 "server": "8301",
                 "farm": 9,
                 "title": "Naginata INF Seminar 2012 Uppsala - 07",
                 "ispublic": 1,
                 "isfriend": 0,
                 "isfamily": 0
            },
             {
                "id": "7896492076",
                 "owner": "14224905@N08",
                 "secret": "fe637292d2",
                 "server": "8456",
                 "farm": 9,
                 "title": "Naginata INF Seminar 2012 Uppsala - 06",
                 "ispublic": 1,
                 "isfriend": 0,
                 "isfamily": 0
            },
             {
                "id": "7325915248",
                 "owner": "14224905@N08",
                 "secret": "bcd9f5013d",
                 "server": "7092",
                 "farm": 8,
                 "title": "Naginata Olympiastadion 2012-05-13 2",
                 "ispublic": 1,
                 "isfriend": 0,
                 "isfamily": 0
            },
             {
                "id": "7325914770",
                 "owner": "14224905@N08",
                 "secret": "e23060cbac",
                 "server": "8018",
                 "farm": 9,
                 "title": "Naginata Olympiastadion 2012-05-13 1",
                 "ispublic": 1,
                 "isfriend": 0,
                 "isfamily": 0
            },
             {
                "id": "7325915808",
                 "owner": "14224905@N08",
                 "secret": "915e607c6f",
                 "server": "7103",
                 "farm": 8,
                 "title": "Naginata Olympiastadion 2012-05-13 3",
                 "ispublic": 1,
                 "isfriend": 0,
                 "isfamily": 0
            },
             {
                "id": "7325916622",
                 "owner": "14224905@N08",
                 "secret": "d06f075c74",
                 "server": "7220",
                 "farm": 8,
                 "title": "Unofficial Naginata Finnish Championship in Engi 2012-05-13",
                 "ispublic": 1,
                 "isfriend": 0,
                 "isfamily": 0
            },
             {
                "id": "7325917160",
                 "owner": "14224905@N08",
                 "secret": "0fbed0005f",
                 "server": "7222",
                 "farm": 8,
                 "title": "Naginata Olympiastadion 2012-05-13 5",
                 "ispublic": 1,
                 "isfriend": 0,
                 "isfamily": 0
            },
             {
                "id": "7322793128",
                 "owner": "14224905@N08",
                 "secret": "6ecbf9ba35",
                 "server": "7102",
                 "farm": 8,
                 "title": "Naginata Tapanila 2012-05-06 2",
                 "ispublic": 1,
                 "isfriend": 0,
                 "isfamily": 0
            },
             {
                "id": "7322791966",
                 "owner": "14224905@N08",
                 "secret": "12d05c342e",
                 "server": "7097",
                 "farm": 8,
                 "title": "Naginata Tapanila 2012-05-06 1",
                 "ispublic": 1,
                 "isfriend": 0,
                 "isfamily": 0
            },
             {
                "id": "7322793674",
                 "owner": "14224905@N08",
                 "secret": "46af1663f4",
                 "server": "7215",
                 "farm": 8,
                 "title": "Naginata Tapanila 2012-05-06 4",
                 "ispublic": 1,
                 "isfriend": 0,
                 "isfamily": 0
            },
             {
                "id": "7322796388",
                 "owner": "14224905@N08",
                 "secret": "03e5127f42",
                 "server": "7240",
                 "farm": 8,
                 "title": "Naginata Tapanila 2012-05-06 3",
                 "ispublic": 1,
                 "isfriend": 0,
                 "isfamily": 0
            },
             {
                "id": "7322720230",
                 "owner": "14224905@N08",
                 "secret": "13d51d3fe5",
                 "server": "7095",
                 "farm": 8,
                 "title": "Naginata Kotka 2012-05-17 4",
                 "ispublic": 1,
                 "isfriend": 0,
                 "isfamily": 0
            },
             {
                "id": "7322721756",
                 "owner": "14224905@N08",
                 "secret": "f2dd161603",
                 "server": "7237",
                 "farm": 8,
                 "title": "Naginata Kotka 2012-05-17 6",
                 "ispublic": 1,
                 "isfriend": 0,
                 "isfamily": 0
            },
             {
                "id": "7322718612",
                 "owner": "14224905@N08",
                 "secret": "4d1df73cf8",
                 "server": "7098",
                 "farm": 8,
                 "title": "Naginata Kotka 2012-05-17 2",
                 "ispublic": 1,
                 "isfriend": 0,
                 "isfamily": 0
            },
             {
                "id": "7322721174",
                 "owner": "14224905@N08",
                 "secret": "37084e99e3",
                 "server": "7090",
                 "farm": 8,
                 "title": "Naginata Kotka 2012-05-17 5",
                 "ispublic": 1,
                 "isfriend": 0,
                 "isfamily": 0
            },
             {
                "id": "7322717598",
                 "owner": "14224905@N08",
                 "secret": "0451681c9f",
                 "server": "8148",
                 "farm": 9,
                 "title": "Naginata Kotka 2012-05-17 1",
                 "ispublic": 1,
                 "isfriend": 0,
                 "isfamily": 0
            },
             {
                "id": "7322719398",
                 "owner": "14224905@N08",
                 "secret": "8cf48943cd",
                 "server": "8015",
                 "farm": 9,
                 "title": "Naginata Kotka 2012-05-17 3",
                 "ispublic": 1,
                 "isfriend": 0,
                 "isfamily": 0
            },
             {
                "id": "7322723630",
                 "owner": "14224905@N08",
                 "secret": "6b6f96827f",
                 "server": "7229",
                 "farm": 8,
                 "title": "Naginata Kotka 2012-05-17 7",
                 "ispublic": 1,
                 "isfriend": 0,
                 "isfamily": 0
            },
             {
                "id": "6025333946",
                 "owner": "14224905@N08",
                 "secret": "d18d4484bc",
                 "server": "6071",
                 "farm": 7,
                 "title": "Jikishinkageryu Naginatajutsu in Hyogo Kenritsu Budokan, Himeji 2011-05-29",
                 "ispublic": 1,
                 "isfriend": 0,
                 "isfamily": 0
            },
             {
                "id": "6024779061",
                 "owner": "14224905@N08",
                 "secret": "de8bc8c77f",
                 "server": "6128",
                 "farm": 7,
                 "title": "Jikishinkageryu Naginatajutsu with Fukuoka sensei in Himeji Budokan 2011-05-26",
                 "ispublic": 1,
                 "isfriend": 0,
                 "isfamily": 0
            },
             {
                "id": "6025334076",
                 "owner": "14224905@N08",
                 "secret": "bfeb0aa7a6",
                 "server": "6089",
                 "farm": 7,
                 "title": "Naginata in Himeji Sports Center 2011-06-09",
                 "ispublic": 1,
                 "isfriend": 0,
                 "isfamily": 0
            },
             {
                "id": "6004950535",
                 "owner": "14224905@N08",
                 "secret": "3e14c0577b",
                 "server": "6021",
                 "farm": 7,
                 "title": "5th Naginata World Championship T-shirts arrived in Himeji 2011-06-23",
                 "ispublic": 1,
                 "isfriend": 0,
                 "isfamily": 0
            },
             {
                "id": "5988483341",
                 "owner": "14224905@N08",
                 "secret": "e0f32e72b2",
                 "server": "6132",
                 "farm": 7,
                 "title": "Atarashii Naginatado, Kobe 2011-06-18",
                 "ispublic": 1,
                 "isfriend": 0,
                 "isfamily": 0
            },
             {
                "id": "5988482559",
                 "owner": "14224905@N08",
                 "secret": "c7f38f2417",
                 "server": "6030",
                 "farm": 7,
                 "title": "Jikishinkageryu Naginatajutsu, Himeji Budokan 2011-06-16",
                 "ispublic": 1,
                 "isfriend": 0,
                 "isfamily": 0
            },
             {
                "id": "5973529225",
                 "owner": "14224905@N08",
                 "secret": "c13bf69915",
                 "server": "6149",
                 "farm": 7,
                 "title": "Naginata in Himeji Sports Center 2011-06-04",
                 "ispublic": 1,
                 "isfriend": 0,
                 "isfamily": 0
            },
             {
                "id": "5896930485",
                 "owner": "14224905@N08",
                 "secret": "bc7a7e2b6c",
                 "server": "5191",
                 "farm": 6,
                 "title": "Naginata in Himeji 2011-06-11",
                 "ispublic": 1,
                 "isfriend": 0,
                 "isfamily": 0
            },
             {
                "id": "5892262839",
                 "owner": "14224905@N08",
                 "secret": "89ba17ac87",
                 "server": "5103",
                 "farm": 6,
                 "title": "Jikishinkageryu Naginata seminar in Himeji 2011-06-22",
                 "ispublic": 1,
                 "isfriend": 0,
                 "isfamily": 0
            },
             {
                "id": "5763043905",
                 "owner": "14224905@N08",
                 "secret": "5a542834cf",
                 "server": "2514",
                 "farm": 3,
                 "title": "Himeji 2011-05-26 Jikishinkageryu Naginatajutsu",
                 "ispublic": 1,
                 "isfriend": 0,
                 "isfamily": 0
            },
             {
                "id": "5763043699",
                 "owner": "14224905@N08",
                 "secret": "fcda29747e",
                 "server": "5185",
                 "farm": 6,
                 "title": "Kyoto 2011-05-04 Shimogamo Jinja, Jikishinkageryu Naginatajutsu",
                 "ispublic": 1,
                 "isfriend": 0,
                 "isfamily": 0
            },
             {
                "id": "5763589730",
                 "owner": "14224905@N08",
                 "secret": "ae7116f625",
                 "server": "2291",
                 "farm": 3,
                 "title": "Kyoto 2011-05-02 107th Embu Taikai, Jikishinkageryu Naginatajutsu",
                 "ispublic": 1,
                 "isfriend": 0,
                 "isfamily": 0
            },
             {
                "id": "4632519379",
                 "owner": "14224905@N08",
                 "secret": "88b217df5e",
                 "server": "3371",
                 "farm": 4,
                 "title": "Himeji, Japan 2010-04-15",
                 "ispublic": 1,
                 "isfriend": 0,
                 "isfamily": 0
            },
             {
                "id": "4632520539",
                 "owner": "14224905@N08",
                 "secret": "aaba8e61fa",
                 "server": "4070",
                 "farm": 5,
                 "title": "Himeji, Japan 2010-04-15",
                 "ispublic": 1,
                 "isfriend": 0,
                 "isfamily": 0
            },
             {
                "id": "4595256326",
                 "owner": "14224905@N08",
                 "secret": "37148e5411",
                 "server": "3283",
                 "farm": 4,
                 "title": "Himeji, Japan 2010-04-21",
                 "ispublic": 1,
                 "isfriend": 0,
                 "isfamily": 0
            },
             {
                "id": "4593691496",
                 "owner": "14224905@N08",
                 "secret": "b30c388351",
                 "server": "1116",
                 "farm": 2,
                 "title": "Kobe, Japan 2010-04-17",
                 "ispublic": 1,
                 "isfriend": 0,
                 "isfamily": 0
            },
             {
                "id": "4339173618",
                 "owner": "14224905@N08",
                 "secret": "30a64c0f5c",
                 "server": "4036",
                 "farm": 5,
                 "title": "Naginata Helsinki 2010-02-07 13",
                 "ispublic": 1,
                 "isfriend": 0,
                 "isfamily": 0
            },
             {
                "id": "4338424327",
                 "owner": "14224905@N08",
                 "secret": "287da4b287",
                 "server": "2729",
                 "farm": 3,
                 "title": "Naginata Helsinki 2010-02-07 09",
                 "ispublic": 1,
                 "isfriend": 0,
                 "isfamily": 0
            },
             {
                "id": "4339171586",
                 "owner": "14224905@N08",
                 "secret": "76e1df4c9d",
                 "server": "4066",
                 "farm": 5,
                 "title": "Naginata Helsinki 2010-02-07 12",
                 "ispublic": 1,
                 "isfriend": 0,
                 "isfamily": 0
            },
             {
                "id": "4339175212",
                 "owner": "14224905@N08",
                 "secret": "89128e1f4d",
                 "server": "2778",
                 "farm": 3,
                 "title": "Naginata Helsinki 2010-02-07 14",
                 "ispublic": 1,
                 "isfriend": 0,
                 "isfamily": 0
            },
             {
                "id": "4339160168",
                 "owner": "14224905@N08",
                 "secret": "08dc1a9d81",
                 "server": "2692",
                 "farm": 3,
                 "title": "Naginata Helsinki 2010-02-07 06",
                 "ispublic": 1,
                 "isfriend": 0,
                 "isfamily": 0
            },
             {
                "id": "4339162394",
                 "owner": "14224905@N08",
                 "secret": "b87994a1bb",
                 "server": "4011",
                 "farm": 5,
                 "title": "Naginata Helsinki 2010-02-07 07",
                 "ispublic": 1,
                 "isfriend": 0,
                 "isfamily": 0
            },
             {
                "id": "4338427189",
                 "owner": "14224905@N08",
                 "secret": "f89d2db2b5",
                 "server": "4008",
                 "farm": 5,
                 "title": "Naginata Helsinki 2010-02-07 11",
                 "ispublic": 1,
                 "isfriend": 0,
                 "isfamily": 0
            },
             {
                "id": "4339167466",
                 "owner": "14224905@N08",
                 "secret": "e3a8a150fe",
                 "server": "4065",
                 "farm": 5,
                 "title": "Naginata Helsinki 2010-02-07 10",
                 "ispublic": 1,
                 "isfriend": 0,
                 "isfamily": 0
            },
             {
                "id": "4339164262",
                 "owner": "14224905@N08",
                 "secret": "45cd7b2b27",
                 "server": "4052",
                 "farm": 5,
                 "title": "Naginata Helsinki 2010-02-07 08",
                 "ispublic": 1,
                 "isfriend": 0,
                 "isfamily": 0
            },
             {
                "id": "4338414899",
                 "owner": "14224905@N08",
                 "secret": "68e32c86c9",
                 "server": "4023",
                 "farm": 5,
                 "title": "Naginata Helsinki 2010-02-07 04",
                 "ispublic": 1,
                 "isfriend": 0,
                 "isfamily": 0
            },
             {
                "id": "4339156198",
                 "owner": "14224905@N08",
                 "secret": "714481beb3",
                 "server": "4011",
                 "farm": 5,
                 "title": "Naginata Helsinki 2010-02-07 03",
                 "ispublic": 1,
                 "isfriend": 0,
                 "isfamily": 0
            },
             {
                "id": "4338410441",
                 "owner": "14224905@N08",
                 "secret": "f403f922b9",
                 "server": "4032",
                 "farm": 5,
                 "title": "Naginata Helsinki 2010-02-07 01",
                 "ispublic": 1,
                 "isfriend": 0,
                 "isfamily": 0
            },
             {
                "id": "4339153260",
                 "owner": "14224905@N08",
                 "secret": "d3b377502e",
                 "server": "2678",
                 "farm": 3,
                 "title": "Naginata Helsinki 2010-02-07 02",
                 "ispublic": 1,
                 "isfriend": 0,
                 "isfamily": 0
            },
             {
                "id": "4339157766",
                 "owner": "14224905@N08",
                 "secret": "f36d0c1be9",
                 "server": "4022",
                 "farm": 5,
                 "title": "Naginata Helsinki 2010-02-07 05",
                 "ispublic": 1,
                 "isfriend": 0,
                 "isfamily": 0
            },
             {
                "id": "4025534344",
                 "owner": "14224905@N08",
                 "secret": "47ec05a0e5",
                 "server": "2679",
                 "farm": 3,
                 "title": "Atarashii Naginatado at the Helsinki Kendo Club",
                 "ispublic": 1,
                 "isfriend": 0,
                 "isfamily": 0
            },
             {
                "id": "3904464471",
                 "owner": "14224905@N08",
                 "secret": "8ab0dc27cf",
                 "server": "3442",
                 "farm": 4,
                 "title": "\u8599\u5200 Prague 2009-09 96",
                 "ispublic": 1,
                 "isfriend": 0,
                 "isfamily": 0
            },
             {
                "id": "3905247032",
                 "owner": "14224905@N08",
                 "secret": "ca49878fe6",
                 "server": "2477",
                 "farm": 3,
                 "title": "\u8599\u5200 Prague 2009-09 95",
                 "ispublic": 1,
                 "isfriend": 0,
                 "isfamily": 0
            }
        ]
    },
     "stat": "ok"
}